Projeto 1/ProjetoCPU/contador/simulation/qsim/contador.msim.vcd
$comment
	File created using the following command:
		vcd file contador.msim.vcd -direction
$end
$date
	Thu Sep 18 14:31:03 2025
$end
$version
	ModelSim Version 10.5b
$end
$timescale
	1ps
$end

$scope module contador_vlg_vec_tst $end
$var reg 1 ! clock $end
$var wire 1 " saida [7] $end
$var wire 1 # saida [6] $end
$var wire 1 $ saida [5] $end
$var wire 1 % saida [4] $end
$var wire 1 & saida [3] $end
$var wire 1 ' saida [2] $end
$var wire 1 ( saida [1] $end
$var wire 1 ) saida [0] $end

$scope module i1 $end
$var wire 1 * gnd $end
$var wire 1 + vcc $end
$var wire 1 , unknown $end
$var tri1 1 - devclrn $end
$var tri1 1 . devpor $end
$var tri1 1 / devoe $end
$var wire 1 0 saida[7]~output_o $end
$var wire 1 1 saida[6]~output_o $end
$var wire 1 2 saida[5]~output_o $end
$var wire 1 3 saida[4]~output_o $end
$var wire 1 4 saida[3]~output_o $end
$var wire 1 5 saida[2]~output_o $end
$var wire 1 6 saida[1]~output_o $end
$var wire 1 7 saida[0]~output_o $end
$var wire 1 8 clock~input_o $end
$var wire 1 9 clock~inputclkctrl_outclk $end
$var wire 1 : inst~0_combout $end
$var wire 1 ; inst~q $end
$var wire 1 < inst1~0_combout $end
$var wire 1 = inst1~q $end
$var wire 1 > inst2~0_combout $end
$var wire 1 ? inst2~q $end
$var wire 1 @ inst3~0_combout $end
$var wire 1 A inst3~q $end
$var wire 1 B inst11~combout $end
$var wire 1 C inst4~0_combout $end
$var wire 1 D inst4~q $end
$var wire 1 E inst5~0_combout $end
$var wire 1 F inst5~q $end
$var wire 1 G inst6~0_combout $end
$var wire 1 H inst6~q $end
$var wire 1 I inst7~0_combout $end
$var wire 1 J inst7~1_combout $end
$var wire 1 K inst7~q $end
$upscope $end
$upscope $end
$enddefinitions $end
#0
$dumpvars
0!
0)
0(
0'
0&
0%
0$
0#
0"
0*
1+
x,
1-
1.
1/
00
01
02
03
04
05
06
07
08
09
1:
0;
0<
0=
0>
0?
0@
0A
0B
0C
0D
0E
0F
0G
0H
1I
0J
0K
$end
#500000
1!
18
19
1;
17
1)
1<
0:
#1000000
0!
08
09
#1500000
1!
18
19
1=
0;
07
16
1(
0)
1:
#2000000
0!
08
09
#2500000
1!
18
19
1;
17
1)
1>
0<
0:
#3000000
0!
08
09
#3500000
1!
18
19
1?
0=
0;
07
06
15
1'
0(
0)
1:
#4000000
0!
08
09
#4500000
1!
18
19
1;
17
1)
1<
0:
#5000000
0!
08
09
#5500000
1!
18
19
1=
0;
07
16
1(
0)
1:
#6000000
0!
08
09
#6500000
1!
18
19
1;
17
1)
1@
0>
0<
0:
#7000000
0!
08
09
#7500000
1!
18
19
1A
0?
0=
0;
07
06
05
14
1&
0'
0(
0)
1:
#8000000
0!
08
09
#8500000
1!
18
19
1;
17
1)
1<
0:
#9000000
0!
08
09
#9500000
1!
18
19
1=
0;
07
16
1(
0)
1:
#10000000
0!
08
09
#10500000
1!
18
19
1;
17
1)
1>
0<
0:
#11000000
0!
08
09
#11500000
1!
18
19
1?
0=
0;
07
06
15
1'
0(
0)
1:
#12000000
0!
08
09
#12500000
1!
18
19
1;
17
1)
1<
0:
#13000000
0!
08
09
#13500000
1!
18
19
1=
0;
07
16
1(
0)
1:
#14000000
0!
08
09
#14500000
1!
18
19
1;
17
1B
1)
0@
0>
0<
0:
1C
#15000000
0!
08
09
#15500000
1!
18
19
1D
0A
0?
0=
0;
07
06
05
04
13
0B
1%
0&
0'
0(
0)
1E
0C
1:
0E
1C
#16000000
0!
08
09
#16500000
1!
18
19
1;
17
1)
1<
0:
#17000000
0!
08
09
#17500000
1!
18
19
1=
0;
07
16
1(
0)
1:
#18000000
0!
08
09
#18500000
1!
18
19
1;
17
1)
1>
0<
0:
#19000000
0!
08
09
#19500000
1!
18
19
1?
0=
0;
07
06
15
1'
0(
0)
1:
#20000000
0!
08
09
#20500000
1!
18
19
1;
17
1)
1<
0:
#21000000
0!
08
09
#21500000
1!
18
19
1=
0;
07
16
1(
0)
1:
#22000000
0!
08
09
#22500000
1!
18
19
1;
17
1)
1@
0>
0<
0:
#23000000
0!
08
09
#23500000
1!
18
19
1A
0?
0=
0;
07
06
05
14
1&
0'
0(
0)
1:
#24000000
0!
08
09
#24500000
1!
18
19
1;
17
1)
1<
0:
#25000000
0!
08
09
#25500000
1!
18
19
1=
0;
07
16
1(
0)
1:
#26000000
0!
08
09
#26500000
1!
18
19
1;
17
1)
1>
0<
0:
#27000000
0!
08
09
#27500000
1!
18
19
1?
0=
0;
07
06
15
1'
0(
0)
1:
#28000000
0!
08
09
#28500000
1!
18
19
1;
17
1)
1<
0:
#29000000
0!
08
09
#29500000
1!
18
19
1=
0;
07
16
1(
0)
1:
#30000000
0!
08
09
#30500000
1!
18
19
1;
17
1B
1)
0@
0>
0<
0:
1E
0C
#31000000
0!
08
09
#31500000
1!
18
19
1F
0D
0A
0?
0=
0;
07
06
05
04
03
12
0B
1$
0%
0&
0'
0(
0)
1C
1:
0C
#32000000
0!
08
09
#32500000
1!
18
19
1;
17
1)
1<
0:
#33000000
0!
08
09
#33500000
1!
18
19
1=
0;
07
16
1(
0)
1:
#34000000
0!
08
09
#34500000
1!
18
19
1;
17
1)
1>
0<
0:
#35000000
0!
08
09
#35500000
1!
18
19
1?
0=
0;
07
06
15
1'
0(
0)
1:
#36000000
0!
08
09
#36500000
1!
18
19
1;
17
1)
1<
0:
#37000000
0!
08
09
#37500000
1!
18
19
1=
0;
07
16
1(
0)
1:
#38000000
0!
08
09
#38500000
1!
18
19
1;
17
1)
1@
0>
0<
0:
#39000000
0!
08
09
#39500000
1!
18
19
1A
0?
0=
0;
07
06
05
14
1&
0'
0(
0)
1:
#40000000
0!
08
09
#40500000
1!
18
19
1;
17
1)
1<
0:
#41000000
0!
08
09
#41500000
1!
18
19
1=
0;
07
16
1(
0)
1:
#42000000
0!
08
09
#42500000
1!
18
19
1;
17
1)
1>
0<
0:
#43000000
0!
08
09
#43500000
1!
18
19
1?
0=
0;
07
06
15
1'
0(
0)
1:
#44000000
0!
08
09
#44500000
1!
18
19
1;
17
1)
1<
0:
#45000000
0!
08
09
#45500000
1!
18
19
1=
0;
07
16
1(
0)
1:
#46000000
0!
08
09
#46500000
1!
18
19
1;
17
1B
1)
0@
0>
0<
0:
1C
#47000000
0!
08
09
#47500000
1!
18
19
1D
0A
0?
0=
0;
07
06
05
04
13
0I
0B
1%
0&
0'
0(
0)
1G
0E
0C
1:
0G
1E
1C
#48000000
0!
08
09
#48500000
1!
18
19
1;
17
1)
1<
0:
#49000000
0!
08
09
#49500000
1!
18
19
1=
0;
07
16
1(
0)
1:
#50000000
0!
08
09
#50500000
1!
18
19
1;
17
1)
1>
0<
0:
#51000000
0!
08
09
#51500000
1!
18
19
1?
0=
0;
07
06
15
1'
0(
0)
1:
#52000000
0!
08
09
#52500000
1!
18
19
1;
17
1)
1<
0:
#53000000
0!
08
09
#53500000
1!
18
19
1=
0;
07
16
1(
0)
1:
#54000000
0!
08
09
#54500000
1!
18
19
1;
17
1)
1@
0>
0<
0:
#55000000
0!
08
09
#55500000
1!
18
19
1A
0?
0=
0;
07
06
05
14
1&
0'
0(
0)
1:
#56000000
0!
08
09
#56500000
1!
18
19
1;
17
1)
1<
0:
#57000000
0!
08
09
#57500000
1!
18
19
1=
0;
07
16
1(
0)
1:
#58000000
0!
08
09
#58500000
1!
18
19
1;
17
1)
1>
0<
0:
#59000000
0!
08
09
#59500000
1!
18
19
1?
0=
0;
07
06
15
1'
0(
0)
1:
#60000000
0!
08
09
#60500000
1!
18
19
1;
17
1)
1<
0:
#61000000
0!
08
09
#61500000
1!
18
19
1=
0;
07
16
1(
0)
1:
#62000000
0!
08
09
#62500000
1!
18
19
1;
17
1B
1)
0@
0>
0<
0:
1G
0E
0C
#63000000
0!
08
09
#63500000
1!
18
19
1H
0F
0D
0A
0?
0=
0;
07
06
05
04
03
02
11
1I
0B
1#
0$
0%
0&
0'
0(
0)
1J
1C
1:
0J
0C
#64000000
0!
08
09
#64500000
1!
18
19
1;
17
1)
1<
0:
#65000000
0!
08
09
#65500000
1!
18
19
1=
0;
07
16
1(
0)
1:
#66000000
0!
08
09
#66500000
1!
18
19
1;
17
1)
1>
0<
0:
#67000000
0!
08
09
#67500000
1!
18
19
1?
0=
0;
07
06
15
1'
0(
0)
1:
#68000000
0!
08
09
#68500000
1!
18
19
1;
17
1)
1<
0:
#69000000
0!
08
09
#69500000
1!
18
19
1=
0;
07
16
1(
0)
1:
#70000000
0!
08
09
#70500000
1!
18
19
1;
17
1)
1@
0>
0<
0:
#71000000
0!
08
09
#71500000
1!
18
19
1A
0?
0=
0;
07
06
05
14
1&
0'
0(
0)
1:
#72000000
0!
08
09
#72500000
1!
18
19
1;
17
1)
1<
0:
#73000000
0!
08
09
#73500000
1!
18
19
1=
0;
07
16
1(
0)
1:
#74000000
0!
08
09
#74500000
1!
18
19
1;
17
1)
1>
0<
0:
#75000000
0!
08
09
#75500000
1!
18
19
1?
0=
0;
07
06
15
1'
0(
0)
1:
#76000000
0!
08
09
#76500000
1!
18
19
1;
17
1)
1<
0:
#77000000
0!
08
09
#77500000
1!
18
19
1=
0;
07
16
1(
0)
1:
#78000000
0!
08
09
#78500000
1!
18
19
1;
17
1B
1)
0@
0>
0<
0:
1C
#79000000
0!
08
09
#79500000
1!
18
19
1D
0A
0?
0=
0;
07
06
05
04
13
0B
1%
0&
0'
0(
0)
1E
0C
1:
0E
1C
#80000000
0!
08
09
#80500000
1!
18
19
1;
17
1)
1<
0:
#81000000
0!
08
09
#81500000
1!
18
19
1=
0;
07
16
1(
0)
1:
#82000000
0!
08
09
#82500000
1!
18
19
1;
17
1)
1>
0<
0:
#83000000
0!
08
09
#83500000
1!
18
19
1?
0=
0;
07
06
15
1'
0(
0)
1:
#84000000
0!
08
09
#84500000
1!
18
19
1;
17
1)
1<
0:
#85000000
0!
08
09
#85500000
1!
18
19
1=
0;
07
16
1(
0)
1:
#86000000
0!
08
09
#86500000
1!
18
19
1;
17
1)
1@
0>
0<
0:
#87000000
0!
08
09
#87500000
1!
18
19
1A
0?
0=
0;
07
06
05
14
1&
0'
0(
0)
1:
#88000000
0!
08
09
#88500000
1!
18
19
1;
17
1)
1<
0:
#89000000
0!
08
09
#89500000
1!
18
19
1=
0;
07
16
1(
0)
1:
#90000000
0!
08
09
#90500000
1!
18
19
1;
17
1)
1>
0<
0:
#91000000
0!
08
09
#91500000
1!
18
19
1?
0=
0;
07
06
15
1'
0(
0)
1:
#92000000
0!
08
09
#92500000
1!
18
19
1;
17
1)
1<
0:
#93000000
0!
08
09
#93500000
1!
18
19
1=
0;
07
16
1(
0)
1:
#94000000
0!
08
09
#94500000
1!
18
19
1;
17
1B
1)
0@
0>
0<
0:
1E
0C
#95000000
0!
08
09
#95500000
1!
18
19
1F
0D
0A
0?
0=
0;
07
06
05
04
03
12
0B
1$
0%
0&
0'
0(
0)
1C
1:
0C
#96000000
0!
08
09
#96500000
1!
18
19
1;
17
1)
1<
0:
#97000000
0!
08
09
#97500000
1!
18
19
1=
0;
07
16
1(
0)
1:
#98000000
0!
08
09
#98500000
1!
18
19
1;
17
1)
1>
0<
0:
#99000000
0!
08
09
#99500000
1!
18
19
1?
0=
0;
07
06
15
1'
0(
0)
1:
